…
```python
conn.sql("DESCRIBE patients;")
```
```python
┌─────────────────────┬─────────────┬─────────┬─────────┬─────────┬───────┐
│     column_name     │ column_type │  null   │   key   │ default │ extra │
│       varchar       │   varchar   │ varchar │ varchar │ varchar │ int32 │
├─────────────────────┼─────────────┼─────────┼─────────┼─────────┼───────┤
│ Id                  │ VARCHAR     │ YES     │ NULL    │ NULL    │  NULL │
│ BIRTHDATE           │ VARCHAR     │ YES     │ NULL    │ NULL    │  NULL │
│ DEATHDATE           │ VARCHAR     │ YES     │ NULL    │ NULL    │  NULL │
│ SSN                 │ VARCHAR     │ YES     │ NULL    │ NULL    │  NULL │
│ DRIVERS             │ VARCHAR     │ YES     │ NULL    │ NULL    │  NULL │
│ PASSPORT            │ VARCHAR     │ YES     │ NULL    │ NULL    │  NULL │
│ PREFIX              │ VARCHAR     │ YES     │ NULL    │ NULL    │  NULL │
│ FIRST               │ VARCHAR     │ YES     │ NULL    │ NULL    │  NULL │
│ LAST                │ VARCHAR     │ YES     │ NULL    │ NULL    │  NULL │
│ SUFFIX              │ VARCHAR     │ YES     │ NULL    │ NULL    │  NULL │
│   ·                 │    ·        │  ·      │  ·      │  ·      │    ·  │
│   ·                 │    ·        │  ·      │  ·      │  ·      │    ·  │
│   ·                 │    ·        │  ·      │  ·      │  ·      │    ·  │
│ BIRTHPLACE          │ VARCHAR     │ YES     │ NULL    │ NULL    │  NULL │
│ ADDRESS             │ VARCHAR     │ YES     │ NULL    │ NULL    │  NULL │
│ CITY                │ VARCHAR     │ YES     │ NULL    │ NULL    │  NULL │
│ STATE               │ VARCHAR     │ YES     │ NULL    │ NULL    │  NULL │
│ COUNTY              │ VARCHAR     │ YES     │ NULL    │ NULL    │  NULL │
│ ZIP                 │ DOUBLE      │ YES     │ NULL    │ NULL    │  NULL │
│ LAT                 │ DOUBLE      │ YES     │ NULL    │ NULL    │  NULL │
│ LON                 │ DOUBLE      │ YES     │ NULL    │ NULL    │  NULL │
│ HEALTHCARE_EXPENSES │ DOUBLE      │ YES     │ NULL    │ NULL    │  NULL │
│ HEALTHCARE_COVERAGE │ DOUBLE      │ YES     │ NULL    │ NULL    │  NULL │
├─────────────────────┴─────────────┴─────────┴─────────┴─────────┴───────┤
│ 25 rows (20 shown)                                            6 columns │
└─────────────────────────────────────────────────────────────────────────┘
```
…
```python
conn.sql("SELECT FIRST, LAST, GENDER, CITY, PASSPORT FROM patients WHERE city = 'Springfield';")
```
```python
┌──────────────┬────────────────┬─────────┬─────────────┬────────────┐
│    FIRST     │      LAST      │ GENDER  │    CITY     │  PASSPORT  │
│   varchar    │    varchar     │ varchar │   varchar   │  varchar   │
├──────────────┼────────────────┼─────────┼─────────────┼────────────┤
│ Jacinto644   │ Kris249        │ M       │ Springfield │ NULL       │
│ Jeffrey461   │ Greenfelder433 │ M       │ Springfield │ NULL       │
│ Sabina296    │ Flatley871     │ F       │ Springfield │ X85058581X │
│ Theodora872  │ Johnson679     │ F       │ Springfield │ X21164602X │
│ Lavera253    │ Anderson154    │ F       │ Springfield │ X83686992X │
│ Golden321    │ Pollich983     │ F       │ Springfield │ NULL       │
│ Georgiann138 │ Greenfelder433 │ F       │ Springfield │ X58134116X │
│ Fausto876    │ Bechtelar572   │ M       │ Springfield │ NULL       │
│ Talisha682   │ Brakus656      │ F       │ Springfield │ X53645004X │
│ Golden321    │ Durgan499      │ F       │ Springfield │ X49016634X │
│    ·         │    ·           │ ·       │      ·      │     ·      │
│    ·         │    ·           │ ·       │      ·      │     ·      │
│    ·         │    ·           │ ·       │      ·      │     ·      │
│ Carla633     │ Terán294       │ F       │ Springfield │ X50212869X │
│ Ángela136    │ Muñiz642       │ F       │ Springfield │ NULL       │
│ Marceline716 │ Kuhlman484     │ F       │ Springfield │ X70432308X │
│ Ana María762 │ Cotto891       │ F       │ Springfield │ X4604857X  │
│ Josefina523  │ Vanegas191     │ F       │ Springfield │ X85396222X │
│ Ester635     │ Sevilla788     │ F       │ Springfield │ X50601786X │
│ Tomás404     │ Galarza986     │ M       │ Springfield │ X76790663X │
│ Arturo47     │ Delafuente833  │ M       │ Springfield │ X45087804X │
│ Gilberto712  │ Martínez540    │ M       │ Springfield │ X89729075X │
│ Juanita470   │ Connelly992    │ F       │ Springfield │ X71156217X │
├──────────────┴────────────────┴─────────┴─────────────┴────────────┤
│ 2814 rows (20 shown)                                     5 columns │
└────────────────────────────────────────────────────────────────────┘
```
### Multiple conditions in Selection
e.g 1: Female Patients in City = 'Springfield';
```python
conn.sql("SELECT FIRST, LAST, GENDER, CITY FROM patients WHERE city = 'Springfield' AND gender = 'F';")
```
```python

conn.sql("SELECT FIRST, LAST, GENDER, CITY FROM patients WHERE city = 'Springfield' AND gender = 'F';")
┌──────────────┬────────────────┬─────────┬─────────────┐
│    FIRST     │      LAST      │ GENDER  │    CITY     │
│   varchar    │    varchar     │ varchar │   varchar   │
├──────────────┼────────────────┼─────────┼─────────────┤
│ Sabina296    │ Flatley871     │ F       │ Springfield │
│ Theodora872  │ Johnson679     │ F       │ Springfield │
│ Lavera253    │ Anderson154    │ F       │ Springfield │
│ Golden321    │ Pollich983     │ F       │ Springfield │
│ Georgiann138 │ Greenfelder433 │ F       │ Springfield │
│ Talisha682   │ Brakus656      │ F       │ Springfield │
│ Golden321    │ Durgan499      │ F       │ Springfield │
│ Jerrie417    │ Gislason620    │ F       │ Springfield │
│ Venus149     │ Hodkiewicz467  │ F       │ Springfield │
│ Refugia211   │ Wintheiser220  │ F       │ Springfield │
│    ·         │     ·          │ ·       │      ·      │
│    ·         │     ·          │ ·       │      ·      │
│    ·         │     ·          │ ·       │      ·      │
│ Tisha655     │ Renner328      │ F       │ Springfield │
│ Mona85       │ Senger904      │ F       │ Springfield │
│ Isabel214    │ Camacho176     │ F       │ Springfield │
│ Carla633     │ Terán294       │ F       │ Springfield │
│ Ángela136    │ Muñiz642       │ F       │ Springfield │
│ Marceline716 │ Kuhlman484     │ F       │ Springfield │
│ Ana María762 │ Cotto891       │ F       │ Springfield │
│ Josefina523  │ Vanegas191     │ F       │ Springfield │
│ Ester635     │ Sevilla788     │ F       │ Springfield │
│ Juanita470   │ Connelly992    │ F       │ Springfield │
├──────────────┴────────────────┴─────────┴─────────────┤
│ 1351 rows (20 shown)                        4 columns │
└───────────────────────────────────────────────────────┘
```
### Nested selection 
e.g. Female patients from City Springfield or Boston
```python
conn.sql("SELECT FIRST, LAST, GENDER, CITY FROM patients WHERE gender = 'F' AND (city = 'Springfield' OR city = 'Boston');")
```
```python
┌──────────────┬────────────────┬─────────┬─────────────┐
│    FIRST     │      LAST      │ GENDER  │    CITY     │
│   varchar    │    varchar     │ varchar │   varchar   │
├──────────────┼────────────────┼─────────┼─────────────┤
│ Sabina296    │ Flatley871     │ F       │ Springfield │
│ Theodora872  │ Johnson679     │ F       │ Springfield │
│ Lavera253    │ Anderson154    │ F       │ Springfield │
│ Golden321    │ Pollich983     │ F       │ Springfield │
│ Georgiann138 │ Greenfelder433 │ F       │ Springfield │
│ Talisha682   │ Brakus656      │ F       │ Springfield │
│ Golden321    │ Durgan499      │ F       │ Springfield │
│ Jerrie417    │ Gislason620    │ F       │ Springfield │
│ Venus149     │ Hodkiewicz467  │ F       │ Springfield │
│ Refugia211   │ Wintheiser220  │ F       │ Springfield │
│     ·        │    ·           │ ·       │   ·         │
│     ·        │    ·           │ ·       │   ·         │
│     ·        │    ·           │ ·       │   ·         │
│ Freida957    │ Hand679        │ F       │ Boston      │
│ Clora637     │ Rempel203      │ F       │ Boston      │
│ Bonny428     │ Turner526      │ F       │ Boston      │
│ Tien590      │ Gaylord332     │ F       │ Boston      │
│ Arlyne429    │ Deckow585      │ F       │ Boston      │
│ Doreen575    │ Johnson679     │ F       │ Boston      │
│ Kym935       │ Hayes766       │ F       │ Boston      │
│ Julia241     │ Nevárez403     │ F       │ Boston      │
│ Ja391        │ Murray856      │ F       │ Boston      │
│ Creola518    │ Spinka232      │ F       │ Boston      │
├──────────────┴────────────────┴─────────┴─────────────┤
│ 7191 rows (20 shown)                        4 columns │
└───────────────────────────────────────────────────────┘
```
#### Alternative
```python
conn.sql("SELECT FIRST, LAST, GENDER, CITY FROM patients WHERE gender = 'F' AND (city IN ('Springfield','Boston'));")
```
```python
┌──────────────┬────────────────┬─────────┬─────────────┐
│    FIRST     │      LAST      │ GENDER  │    CITY     │
│   varchar    │    varchar     │ varchar │   varchar   │
├──────────────┼────────────────┼─────────┼─────────────┤
│ Sabina296    │ Flatley871     │ F       │ Springfield │
│ Theodora872  │ Johnson679     │ F       │ Springfield │
│ Lavera253    │ Anderson154    │ F       │ Springfield │
│ Golden321    │ Pollich983     │ F       │ Springfield │
│ Georgiann138 │ Greenfelder433 │ F       │ Springfield │
│ Talisha682   │ Brakus656      │ F       │ Springfield │
│ Golden321    │ Durgan499      │ F       │ Springfield │
│ Jerrie417    │ Gislason620    │ F       │ Springfield │
│ Venus149     │ Hodkiewicz467  │ F       │ Springfield │
│ Refugia211   │ Wintheiser220  │ F       │ Springfield │
│     ·        │    ·           │ ·       │   ·         │
│     ·        │    ·           │ ·       │   ·         │
│     ·        │    ·           │ ·       │   ·         │
│ Freida957    │ Hand679        │ F       │ Boston      │
│ Clora637     │ Rempel203      │ F       │ Boston      │
│ Bonny428     │ Turner526      │ F       │ Boston      │
│ Tien590      │ Gaylord332     │ F       │ Boston      │
│ Arlyne429    │ Deckow585      │ F       │ Boston      │
│ Doreen575    │ Johnson679     │ F       │ Boston      │
│ Kym935       │ Hayes766       │ F       │ Boston      │
│ Julia241     │ Nevárez403     │ F       │ Boston      │
│ Ja391        │ Murray856      │ F       │ Boston      │
│ Creola518    │ Spinka232      │ F       │ Boston      │
├──────────────┴────────────────┴─────────┴─────────────┤
│ 7191 rows (20 shown)                        4 columns │
└───────────────────────────────────────────────────────┘
```
### Filter on missing data
* Filtering on missing data is crucial for maintaining data integrity and ensuring accurate analysis by identifying and handling incomplete records effectively.
* Retrieve the first name, last name, gender, and city for all patients who are from Springfield and have a passport number recorded (i.e., the passport field is not empty).
  
```python
conn.sql("SELECT FIRST, LAST, GENDER, CITY, PASSPORT FROM patients WHERE city = 'Springfield' AND PASSPORT IS NOT NULL;")
```
```python
┌──────────────┬────────────────┬─────────┬─────────────┬────────────┐
│    FIRST     │      LAST      │ GENDER  │    CITY     │  PASSPORT  │
│   varchar    │    varchar     │ varchar │   varchar   │  varchar   │
├──────────────┼────────────────┼─────────┼─────────────┼────────────┤
│ Sabina296    │ Flatley871     │ F       │ Springfield │ X85058581X │
│ Theodora872  │ Johnson679     │ F       │ Springfield │ X21164602X │
│ Lavera253    │ Anderson154    │ F       │ Springfield │ X83686992X │
│ Georgiann138 │ Greenfelder433 │ F       │ Springfield │ X58134116X │
│ Talisha682   │ Brakus656      │ F       │ Springfield │ X53645004X │
│ Golden321    │ Durgan499      │ F       │ Springfield │ X49016634X │
│ Ty725        │ Schmeler639    │ M       │ Springfield │ X22960735X │
│ Pilar644     │ Pouros728      │ F       │ Springfield │ X21434326X │
│ Georgette866 │ Stark857       │ F       │ Springfield │ X84034866X │
│ Annika454    │ Gutmann970     │ F       │ Springfield │ X3275916X  │
│     ·        │     ·          │ ·       │      ·      │     ·      │
│     ·        │     ·          │ ·       │      ·      │     ·      │
│     ·        │     ·          │ ·       │      ·      │     ·      │
│ Isabel214    │ Camacho176     │ F       │ Springfield │ X52173808X │
│ Carla633     │ Terán294       │ F       │ Springfield │ X50212869X │
│ Marceline716 │ Kuhlman484     │ F       │ Springfield │ X70432308X │
│ Ana María762 │ Cotto891       │ F       │ Springfield │ X4604857X  │
│ Josefina523  │ Vanegas191     │ F       │ Springfield │ X85396222X │
│ Ester635     │ Sevilla788     │ F       │ Springfield │ X50601786X │
│ Tomás404     │ Galarza986     │ M       │ Springfield │ X76790663X │
│ Arturo47     │ Delafuente833  │ M       │ Springfield │ X45087804X │
│ Gilberto712  │ Martínez540    │ M       │ Springfield │ X89729075X │
│ Juanita470   │ Connelly992    │ F       │ Springfield │ X71156217X │
├──────────────┴────────────────┴─────────┴─────────────┴────────────┤
│ 2221 rows (20 shown)                                     5 columns │
└────────────────────────────────────────────────────────────────────┘
```
### Filter and select in numeric range
Patients in City = 'Springfield' where the HEALTHCARE_EXPENSES between 1.5M and 2M

```python
conn.sql("SELECT FIRST, LAST, GENDER, CITY FROM patients WHERE city = 'Springfield' AND HEALTHCARE_EXPENSES BETWEEN 1500000 AND 2000000;")
```
```python
┌──────────────┬────────────────┬─────────┬─────────────┐
│    FIRST     │      LAST      │ GENDER  │    CITY     │
│   varchar    │    varchar     │ varchar │   varchar   │
├──────────────┼────────────────┼─────────┼─────────────┤
│ Talisha682   │ Brakus656      │ F       │ Springfield │
│ Jerold208    │ Harber290      │ M       │ Springfield │
│ Dean966      │ Tillman293     │ M       │ Springfield │
│ Orval846     │ Cartwright189  │ M       │ Springfield │
│ Jacinto644   │ Abernathy524   │ M       │ Springfield │
│ Bethel526    │ Satterfield305 │ F       │ Springfield │
│ Dorene845    │ Botsford977    │ F       │ Springfield │
│ Lula998      │ Langosh790     │ F       │ Springfield │
│ Deeanna316   │ Koss676        │ F       │ Springfield │
│ Loriann967   │ Torp761        │ F       │ Springfield │
│    ·         │    ·           │ ·       │      ·      │
│    ·         │    ·           │ ·       │      ·      │
│    ·         │    ·           │ ·       │      ·      │
│ Ashley34     │ Murazik203     │ M       │ Springfield │
│ Ulysses632   │ Donnelly343    │ M       │ Springfield │
│ Horace32     │ Hammes673      │ M       │ Springfield │
│ Roman389     │ Lubowitz58     │ M       │ Springfield │
│ Jerald662    │ Grady603       │ M       │ Springfield │
│ Damien170    │ Hoppe518       │ M       │ Springfield │
│ Charley358   │ Vandervort697  │ M       │ Springfield │
│ Carla633     │ Terán294       │ F       │ Springfield │
│ Ana María762 │ Cotto891       │ F       │ Springfield │
│ Juanita470   │ Connelly992    │ F       │ Springfield │
├──────────────┴────────────────┴─────────┴─────────────┤
│ 241 rows (20 shown)                         4 columns │
└───────────────────────────────────────────────────────┘
```
…
```python
conn.sql("SELECT CITY, COUNT(*) AS patient_count FROM patients GROUP BY CITY;") ## each run gives random order
```
```python
┌─────────────┬───────────────┐
│    CITY     │ patient_count │
│   varchar   │     int64     │
├─────────────┼───────────────┤
│ Dartmouth   │           656 │
│ Fitchburg   │           743 │
│ Plymouth    │           972 │
│ Worcester   │          3263 │
│ Beverly     │           778 │
│ Westfield   │           781 │
│ Hingham     │           431 │
│ Rochester   │           103 │
│ Sandwich    │           387 │
│ Watertown   │           534 │
│    ·        │             · │
│    ·        │             · │
│    ·        │             · │
│ Ashfield    │            29 │
│ Pelham      │            26 │
│ Hancock     │            22 │
│ Monterey    │            13 │
│ Richmond    │            23 │
│ Hinsdale    │            30 │
│ Middlefield │            11 │
│ Westhampton │            14 │
│ Sandisfield │            12 │
│ Monroe      │             2 │
├─────────────┴───────────────┤
│     351 rows (20 shown)     │
└─────────────────────────────┘
```
### Counting Patients by City and sorting them highest to lowest
```python
conn.sql("SELECT CITY, COUNT(*) AS patient_count FROM patients GROUP BY CITY ORDER BY patient_count DESC;")
```
```python
┌─────────────┬───────────────┐
│    CITY     │ patient_count │
│   varchar   │     int64     │
├─────────────┼───────────────┤
│ Boston      │         11496 │
│ Worcester   │          3263 │
│ Springfield │          2814 │
│ Cambridge   │          2044 │
│ Lowell      │          2027 │
│ Brockton    │          1833 │
│ Lynn        │          1714 │
│ New Bedford │          1706 │
│ Quincy      │          1698 │
│ Newton      │          1695 │
│   ·         │             · │
│   ·         │             · │
│   ·         │             · │
│ Blandford   │            10 │
│ Heath       │             8 │
│ Tolland     │             7 │
│ Hawley      │             6 │
│ Alford      │             5 │
│ New Ashford │             4 │
│ Aquinnah    │             4 │
│ Tyringham   │             3 │
│ Monroe      │             2 │
│ Gosnold     │             1 │
├─────────────┴───────────────┤
│     351 rows (20 shown)     │
└─────────────────────────────┘
```
…
